{
  "projects": [
    {
      "name": "the team project",
      "uuid": 1,
      "startDate":1478554356091,
      "endDate":1481232779680,
      "updateDate":1481232779680,
      "status":"in progress"
    },
    {
      "name": "ShipIt",
      "uuid": 2,
      "startDate":1481059994095,
      "endDate":1481232779680,
      "updateDate":1481146409349,
      "status":"in progress"
    },
    {
      "name": "Summer",
      "uuid": 3,
      "startDate":1481146409349,
      "endDate":1486341145033,
      "updateDate":1481146409349,
      "status":"in progress"
    }
  ],
  "repos": [
    {
      "name": "Frontend",
      "uuid": 1,
      "url":"http://bitbucket.org/shipit37teamdashboards/frontend"
    },
    {
      "name": "Backend",
      "uuid": 2,
      "url":"http://bitbucket.org/shipit37teamdashboards/backend"
    }
  ],
  "newRepos": [
    {
      "name": "Secret Library",
      "uuid": 1,
      "url":"dont-tell-anybody"
    },
    {
      "name": "Something strange",
      "uuid": 2,
      "url":"http://google.com/Project"
    }
  ],
  "services": [
    {
      "name": "Big Micros",
      "uuid": 1
    },
    {
      "name": "MiM daemon",
      "uuid": 2
    }
  ],
  "calendar": {
    "1": [],
    "2": [],
    "3": [],
    "4": [],
    "5": []
  },
  "team": {
    "name": "THE TEAM",
    "about": "Absolute normal team, but...",
    "location": [
      {
        "office": "SYD-341",
        "floor": 2,
        "address": "341, Level 2",
        "map": {
          "image": "/img/map/level-2-floorplan.png",
          "polygon": "m170,65 l30,0 l0,60 l-30,0 l0,-60 z"
        }
      }
    ],
    "members": [
      {
        "name": "Kashey",
        "role": "Frontend",
        "perks": {},
        "icon": "https://docs.atlassian.com/aui/latest/docs/images/project-128.png",
        "uuid": 1,
        "calId": 1,
        "office": "SDY",
        "absence": {}
      },
      {
        "name": "Ilia",
        "role": "Java",
        "perks": {},
        "icon": "https://docs.atlassian.com/aui/latest/docs/images/project-128.png",
        "uuid": 2,
        "calId": 2,
        "office": "SDY",
        "absence": {"type":"business trip", "startDate":1481241600, "endDate":1481328000}
      },
      {
        "name": "Hamish",
        "role": "Python",
        "perks": {},
        "icon": "https://docs.atlassian.com/aui/latest/docs/images/project-128.png",
        "uuid": 3,
        "calId": 3,
        "office": "SDY",
        "absence": [{"type":"leave", "startDate":1481241600, "endDate":1481328000}]
      },
      {
        "name": "Vitaly",
        "role": "Frontend",
        "perks": {},
        "icon": "https://docs.atlassian.com/aui/latest/docs/images/project-128.png",
        "uuid": 4,
        "calId": 4,
        "office": "SDY",
        "absence": {}
      },
      {
        "name": "Nail",
        "role": "TBD",
        "perks": {},
        "icon": "https://docs.atlassian.com/aui/latest/docs/images/project-128.png",
        "uuid": 5,
        "calId": 5,
        "office": "SDY",
        "absence": {}
      },
      {
        "name": "Artem",
        "role": "Backend",
        "perks": {},
        "icon": "https://docs.atlassian.com/aui/latest/docs/images/project-128.png",
        "uuid": 6,
        "calId": 6,
        "office": "SDY",
        "absence": {}
      }
    ]
  }
}