[
    {
        "key": "949185a3-230d-49c9-a6c5-c11764948a27",
        "name": "ptl-notifier",
        "decription": "PTL wrapper service for SNS",
        "url": "https://ptl-notifier.internal.useast.atlassian.io",
        "serviceCentralUrl": "https://services.atlassian.io/services/ptl-notifier",
        "owner": "nislamov"
    },
    {
        "key": "24b19abf-5d03-4531-a70f-af381ac6b68f",
        "name": "ffs-ld-relay",
        "decription": "Connection proxy between, primarily, Unicorn and LaunchDarkly's streaming service. It's used to reduce the load on LD's streaming service. See: https://extranet.atlassian.com/display/FFS/Architecture+reference#Architecturereference-Dataflowusingaclientconnectedtotheffs-ld-relaystreamingmode(forUnicorn)",
        "url": "https://ffs-ld-relay.internal.useast.atlassian.io",
        "serviceCentralUrl": "https://services.atlassian.io/services/ffs-ld-relay",
        "owner": "ipopovic"
    },
    {
        "key": "d815ceb7-6086-4e77-9d69-d7d735882cdd",
        "name": "heimdall",
        "decription": "The all seeing Cloud watcher",
        "url": "https://heimdall.internal.uswest.atlassian.io",
        "serviceCentralUrl": "https://services.atlassian.io/services/heimdall",
        "owner": "ipopovic"
    },
    {
        "key": "d424fea5-23b8-4dc4-a343-5463c497e120",
        "name": "manifesto-ui",
        "decription": "Manifesto UI",
        "url": "https://manifesto-ui.internal.useast.atlassian.io",
        "serviceCentralUrl": "https://services.atlassian.io/services/manifesto-ui",
        "owner": "ipopovic"
    },
    {
        "key": "5e9822eb-759e-4ce8-9aa4-5314499898ef",
        "name": "ptl-percolator",
        "decription": "PTL Service used to partition reporting messages into correctly sharded kinesis messages.",
        "url": "https://ptl-percolator.internal.useast.atlassian.io",
        "serviceCentralUrl": "https://services.atlassian.io/services/ptl-percolator",
        "owner": "nislamov"
    },
    {
        "key": "2d737615-3141-4b47-9634-e8483c8c478e",
        "name": "feature-flag-service-monitor",
        "decription": "Feature Flag Service Monitor",
        "url": "https://feature-flag-service-monitor.internal.useast.atlassian.io",
        "serviceCentralUrl": "https://services.atlassian.io/services/feature-flag-service-monitor",
        "owner": "ipopovic"
    },
    {
        "key": "4f5b7d1d-66af-4cbf-95cc-cdaf7ca79df3",
        "name": "ptl-noop-runner",
        "decription": "No-op reference implementation of PTL Task Runner",
        "url": "https://ptl-noop-runner.internal.domain.dev.atlassian.io",
        "serviceCentralUrl": "https://services.atlassian.io/services/ptl-noop-runner",
        "owner": "nislamov"
    },
    {
        "key": "8dcc036a-2582-4b49-b2e4-e39e95ffbbe1",
        "name": "ptl-reporter",
        "decription": "PTL Report Provider",
        "url": "https://ptl-reporter.internal.useast.atlassian.io",
        "serviceCentralUrl": "https://services.atlassian.io/services/ptl-reporter",
        "owner": "nislamov"
    },
    {
        "key": "2ef5d830-2354-4d29-9674-7b9f20a84c23",
        "name": "ptl-tars",
        "decription": "Tenant Action Request Service",
        "url": "https://ptl-tars.internal.useast.atlassian.io",
        "serviceCentralUrl": "https://services.atlassian.io/services/ptl-tars",
        "owner": "nislamov"
    },
    {
        "key": "c8e8275b-fa51-46bc-aedd-e983f990baa8",
        "name": "feature-flags-service",
        "decription": "Feature Flags Service",
        "url": "https://feature-flags-service.internal.useast.atlassian.io",
        "serviceCentralUrl": "https://services.atlassian.io/services/feature-flags-service",
        "owner": "ipopovic"
    },
    {
        "key": "f2e4fae1-c4ab-479f-af2d-4c4ebe00cdcd",
        "name": "ptl-dispatcher",
        "decription": "Tenant Action Tasks Dispatcher",
        "url": "https://ptl-dispatcher.internal.useast.atlassian.io",
        "serviceCentralUrl": "https://services.atlassian.io/services/ptl-dispatcher",
        "owner": "nislamov"
    },
    {
        "key": "d59c59ac-2ed5-4778-bf62-9cee389c37b5",
        "name": "ptl-executor",
        "decription": "PTL Task Executor",
        "url": "https://ptl-executor.internal.useast.atlassian.io",
        "serviceCentralUrl": "https://services.atlassian.io/services/ptl-executor",
        "owner": "nislamov"
    }
]